…
```r
dailySteps
```

```
## # A tibble: 61 x 4
##    date       Avg_Steps Median_Steps na.rm
##  * <date>         <dbl>        <dbl> <lgl>
##  1 2012-10-01   NaN               NA TRUE 
##  2 2012-10-02     0.438            0 TRUE 
##  3 2012-10-03    39.4              0 TRUE 
##  4 2012-10-04    42.1              0 TRUE 
##  5 2012-10-05    46.2              0 TRUE 
##  6 2012-10-06    53.5              0 TRUE 
##  7 2012-10-07    38.2              0 TRUE 
##  8 2012-10-08   NaN               NA TRUE 
##  9 2012-10-09    44.5              0 TRUE 
## 10 2012-10-10    34.4              0 TRUE 
## # ... with 51 more rows
```
…
